<svg width="24" height="24" viewBox="0 0 24 24" fill="none" xmlns="http://www.w3.org/2000/svg">
<path d="M12.0002 13.12V9.38" stroke="#F84263" stroke-width="1.5" stroke-linecap="round" stroke-linejoin="round"/>
<path d="M11.9992 16.125C11.8612 16.125 11.7492 16.237 11.7502 16.375C11.7502 16.513 11.8622 16.625 12.0002 16.625C12.1382 16.625 12.2502 16.513 12.2502 16.375C12.2502 16.237 12.1382 16.125 11.9992 16.125" stroke="#F84263" stroke-width="1.5" stroke-linecap="round" stroke-linejoin="round"/>
<path fill-rule="evenodd" clip-rule="evenodd" d="M14.0293 4.13894L21.6883 17.5429C22.5783 19.1009 21.4533 21.0399 19.6593 21.0399H4.34125C2.54625 21.0399 1.42125 19.1009 2.31225 17.5429L9.97125 4.13894C10.8683 2.56794 13.1323 2.56794 14.0293 4.13894Z" stroke="#F84263" stroke-width="1.5" stroke-linecap="round" stroke-linejoin="round"/>
</svg>
